{"meta":{"offset":0,"limit":5,"total_records":72044,"total_pages":14409,"current_page":1,"has_more":true,"next_page":"https://api.openparldata.ch/v1/votings/?offset=5&limit=5","prev_page":null,"first_page":"https://api.openparldata.ch/v1/votings/?offset=0&limit=5","last_page":"https://api.openparldata.ch/v1/votings/?offset=72040&limit=5","self":"https://api.openparldata.ch/v1/votings/?limit=5&offset=0"},"data":[{"id":101357,"url_api":"https://api.openparldata.ch/v1/votings/101357","body_key":"AG","external_id":"6847221_1","external_alternative_id":"945","title":{"de":"Abstimmung"},"date":"2026-03-10T16:42:53","affair_id":256548,"affair_title":{"de":"Departementswechsel des Frauenhaus Aargau-Solothurn vom Departement Bildung, Kultur und Sport zum Departement Gesundheit und Soziales"},"results_yes":132,"results_no":0,"results_abstention":0,"results_absent":0,"results_string":null,"decision":null,"updated_at":"2026-03-10T22:53:57","updated_external_at":"2026-03-11T04:44:41","created_at":"2026-03-11T04:44:41","url_external":{"de":"https://www.ag.ch/grossrat/grweb/de/147/Startseite?FrmEntity=grweb.modules.dok.GrDok&FrmRequest=Download&DokId=6847221&Extension=.xlsx"},"type":{},"meaning_of_yes":{"de":"Für die Überweisung der Motion = Ja-Dagegen = Nein"},"meaning_of_no":{},"body_id":250,"meeting_id":null,"group_id":1996,"group_external_id":"164","links":{"votes":"https://api.openparldata.ch/v1/votings/101357/votes","affairs":"https://api.openparldata.ch/v1/votings/101357/affairs","meeting":"https://api.openparldata.ch/v1/votings/101357/meeting","bodies":"https://api.openparldata.ch/v1/votings/101357/bodies"}},{"id":101356,"url_api":"https://api.openparldata.ch/v1/votings/101356","body_key":"AG","external_id":"6847048_1","external_alternative_id":"942","title":{"de":"Abstimmung (Abschreibung)"},"date":"2026-03-10T16:02:16","affair_id":256545,"affair_title":{"de":"Programm zur Förderung der Handlungsfelder Sprachförderung, Schulerfolg und Integration an multikulturellen Schulen"},"results_yes":78,"results_no":54,"results_abstention":0,"results_absent":0,"results_string":null,"decision":null,"updated_at":"2026-03-10T22:53:57","updated_external_at":"2026-03-11T04:44:41","created_at":"2026-03-11T04:44:41","url_external":{"de":"https://www.ag.ch/grossrat/grweb/de/147/Startseite?FrmEntity=grweb.modules.dok.GrDok&FrmRequest=Download&DokId=6847048&Extension=.xlsx"},"type":{"de":"Abschreibung"},"meaning_of_yes":{"de":"Für die Abschreibung = Ja-Gegen die Abschreibung = Nein"},"meaning_of_no":{},"body_id":250,"meeting_id":null,"group_id":1996,"group_external_id":"164","links":{"votes":"https://api.openparldata.ch/v1/votings/101356/votes","affairs":"https://api.openparldata.ch/v1/votings/101356/affairs","meeting":"https://api.openparldata.ch/v1/votings/101356/meeting","bodies":"https://api.openparldata.ch/v1/votings/101356/bodies"}},{"id":101355,"url_api":"https://api.openparldata.ch/v1/votings/101355","body_key":"AG","external_id":"6846998_1","external_alternative_id":"933","title":{"de":"Abstimmung"},"date":"2026-03-10T15:40:04","affair_id":256515,"affair_title":{"de":"Vermittlung Grundkompetenzen und verbindliche Inhalte im Schulfach Ethik, Religionen, Gemeinschaft"},"results_yes":88,"results_no":46,"results_abstention":0,"results_absent":0,"results_string":null,"decision":null,"updated_at":"2026-03-10T22:53:57","updated_external_at":"2026-03-11T04:44:41","created_at":"2026-03-11T04:44:41","url_external":{"de":"https://www.ag.ch/grossrat/grweb/de/147/Startseite?FrmEntity=grweb.modules.dok.GrDok&FrmRequest=Download&DokId=6846998&Extension=.xlsx"},"type":{},"meaning_of_yes":{"de":"Für die Überweisung des Postulats = Ja-Dagegen = Nein"},"meaning_of_no":{},"body_id":250,"meeting_id":null,"group_id":1996,"group_external_id":"164","links":{"votes":"https://api.openparldata.ch/v1/votings/101355/votes","affairs":"https://api.openparldata.ch/v1/votings/101355/affairs","meeting":"https://api.openparldata.ch/v1/votings/101355/meeting","bodies":"https://api.openparldata.ch/v1/votings/101355/bodies"}},{"id":101354,"url_api":"https://api.openparldata.ch/v1/votings/101354","body_key":"AG","external_id":"6846924_1","external_alternative_id":"932","title":{"de":"Antrag 2"},"date":"2026-03-10T15:14:55","affair_id":280381,"affair_title":{"de":"Entwicklungsschwerpunkt 310E021 \"Sicherstellung des Personalbedarfs für die Aargauer Volksschule (Projekt 'MAGIS')\"; Schlussbericht zum Projekt \"MAGIS\""},"results_yes":127,"results_no":0,"results_abstention":0,"results_absent":0,"results_string":null,"decision":null,"updated_at":"2026-03-10T22:53:57","updated_external_at":"2026-03-11T04:44:41","created_at":"2026-03-11T04:44:41","url_external":{"de":"https://www.ag.ch/grossrat/grweb/de/147/Startseite?FrmEntity=grweb.modules.dok.GrDok&FrmRequest=Download&DokId=6846924&Extension=.xlsx"},"type":{},"meaning_of_yes":{"de":"Für Antrag 2 = Ja-Dagegen = Nein"},"meaning_of_no":{},"body_id":250,"meeting_id":null,"group_id":1996,"group_external_id":"164","links":{"votes":"https://api.openparldata.ch/v1/votings/101354/votes","affairs":"https://api.openparldata.ch/v1/votings/101354/affairs","meeting":"https://api.openparldata.ch/v1/votings/101354/meeting","bodies":"https://api.openparldata.ch/v1/votings/101354/bodies"}},{"id":101353,"url_api":"https://api.openparldata.ch/v1/votings/101353","body_key":"AG","external_id":"6846786_1","external_alternative_id":"930","title":{"de":"Abstimmung (Abschreibung)"},"date":"2026-03-10T14:29:53","affair_id":256532,"affair_title":{"de":"Konkrete Prüfung wirkungsorientierter Verbesserungen im Kindes- und Erwachsenenschutz (KESB)"},"results_yes":67,"results_no":65,"results_abstention":0,"results_absent":0,"results_string":null,"decision":null,"updated_at":"2026-03-10T22:53:57","updated_external_at":"2026-03-11T04:44:41","created_at":"2026-03-11T04:44:41","url_external":{"de":"https://www.ag.ch/grossrat/grweb/de/147/Startseite?FrmEntity=grweb.modules.dok.GrDok&FrmRequest=Download&DokId=6846786&Extension=.xlsx"},"type":{"de":"Abschreibung"},"meaning_of_yes":{"de":"Für die Abschreibung = Ja-Gegen die Abschreibung = Nein-"},"meaning_of_no":{},"body_id":250,"meeting_id":null,"group_id":1996,"group_external_id":"164","links":{"votes":"https://api.openparldata.ch/v1/votings/101353/votes","affairs":"https://api.openparldata.ch/v1/votings/101353/affairs","meeting":"https://api.openparldata.ch/v1/votings/101353/meeting","bodies":"https://api.openparldata.ch/v1/votings/101353/bodies"}}]}